{
    "movies": [
        {
            "name": "The dark knight",
            "plot": "A gang of criminals rob a Gotham City mob bank; the Joker manipulates them into murdering each other for a higher share until only he remains, escaping with the money. Batman, District Attorney Harvey Dent and Lieutenant Jim Gordon form an alliance to rid Gotham of organized crime.",
            "year": 2008,
            "industry":"hollywood",
            "category": [
                "crime",
                "drama",
                "action"
            ],
            "cast": [
                "Christian Bale",
                "Michael Caine",
                "Heath Ledger",
                "Gary Oldman",
                "Aaron Eckhart",
                "Maggie Gyllenhaal",
                "Morgan Freeman"
            ],
            "director": "Christopher Nolan",
            "producer": [
                "Emma Thomas",
                "Charles Roven",
                "Christopher Nolan"
            ],
            "running time": "152 minutes",
            "language": "english",
            "budget": "185 million dollar"
        },
        {
            "name": "The call",
            "plot": "In 2019, 28-year-old Kim Seo-yeon loses her cellphone while traveling to visit her sick, estranged mother in a rural area. Arriving at her rundown childhood home, she finds a decades-old cordless phone, and through it receives calls from a distressed woman who says she's being tortured by her mother.",
            "year": 2020,
            "industry":"Hallyuwood",
            "category": [
                "crime",
                "drama",
                "action"
            ],
            "cast": [
                "Park Shin-hye",
                "jeon Jong-seo"
            ],
            "director": "Lee Chung-hyun",
            "producer": [
                "Syd Lim",
                "Jeong Hui-sun"
            ],
            "running time": "122 minutes",
            "language": [
                "korean",
                "hindi"
            ],
            "distributer": "netflix"
        },
        {
            "name": "jai bhim",
            "plot": "The film commences with a portrait of society's caste divide, with the police checking the caste of detainees to determine who should be released. Only inmates from the upper and middle castes get released. The police blame people from lower caste accusing them of perpetrating crimes in multiple pending cases.",
            "year": 2021,
            "category": [
                "crime",
                "drama"
            ],
            "cast": [
                "Suriya",
                "Lijomol Jose",
                "Manikandan",
                "Rajisha Vijayan",
                "Prakash Raj",
                "Rao Ramesh"
            ],
            "director": "T. J. Gnanavel",
            "producer": [
                "jyothika",
                "suriya"
            ],
            "running time": "164 minutes",
            "language": [
                "tamil",
                "hindi"
            ],
            "distributer": "amazon prime"
        }
    ]
}